{
  "action": "label_updated",
  "number": 2,
  "pull_request": {
    "id": 17663,
    "url": "https://try.gitea.io/jolheiser/gitea-webhook/pulls/2",
    "number": 2,
    "user": {
      "id": 11280,
      "login": "jolheiser",
      "login_name": "",
      "full_name": "John Olheiser",
      "email": "jolheiser@noreply.try.gitea.io",
      "avatar_url": "https://secure.gravatar.com/avatar/cc498b605dee7b6fb9e6422332691bb4?d=identicon",
      "language": "",
      "is_admin": false,
      "last_login": "0001-01-01T00:00:00Z",
      "created": "2019-02-06T22:20:33Z",
      "restricted": false,
      "active": false,
      "prohibit_login": false,
      "location": "",
      "website": "",
      "description": "F is for friends who do stuff together.",
      "visibility": "public",
      "followers_count": 0,
      "following_count": 1,
      "starred_repos_count": -3,
      "username": "jolheiser"
    },
    "title": "Pull Request 1",
    "body": "Pull Request Body\nCloses #1",
    "labels": [
      {
        "id": 20926,
        "name": "bug",
        "color": "ee0701",
        "description": "Something is not working",
        "url": "https://try.gitea.io/api/v1/repos/jolheiser/gitea-webhook/labels/20926"
      }
    ],
    "milestone": {
      "id": 1988,
      "title": "Milestone 1",
      "description": "Milestone Description",
      "state": "open",
      "open_issues": 1,
      "closed_issues": 0,
      "created_at": "2023-01-26T04:02:28Z",
      "updated_at": "2023-01-26T04:02:32Z",
      "closed_at": null,
      "due_on": null
    },
    "assignee": {
      "id": 11280,
      "login": "jolheiser",
      "login_name": "",
      "full_name": "John Olheiser",
      "email": "jolheiser@noreply.try.gitea.io",
      "avatar_url": "https://secure.gravatar.com/avatar/cc498b605dee7b6fb9e6422332691bb4?d=identicon",
      "language": "",
      "is_admin": false,
      "last_login": "0001-01-01T00:00:00Z",
      "created": "2019-02-06T22:20:33Z",
      "restricted": false,
      "active": false,
      "prohibit_login": false,
      "location": "",
      "website": "",
      "description": "F is for friends who do stuff together.",
      "visibility": "public",
      "followers_count": 0,
      "following_count": 1,
      "starred_repos_count": -3,
      "username": "jolheiser"
    },
    "assignees": [
      {
        "id": 11280,
        "login": "jolheiser",
        "login_name": "",
        "full_name": "John Olheiser",
        "email": "jolheiser@noreply.try.gitea.io",
        "avatar_url": "https://secure.gravatar.com/avatar/cc498b605dee7b6fb9e6422332691bb4?d=identicon",
        "language": "",
        "is_admin": false,
        "last_login": "0001-01-01T00:00:00Z",
        "created": "2019-02-06T22:20:33Z",
        "restricted": false,
        "active": false,
        "prohibit_login": false,
        "location": "",
        "website": "",
        "description": "F is for friends who do stuff together.",
        "visibility": "public",
        "followers_count": 0,
        "following_count": 1,
        "starred_repos_count": -3,
        "username": "jolheiser"
      }
    ],
    "state": "open",
    "is_locked": false,
    "comments": 0,
    "html_url": "https://try.gitea.io/jolheiser/gitea-webhook/pulls/2",
    "diff_url": "https://try.gitea.io/jolheiser/gitea-webhook/pulls/2.diff",
    "patch_url": "https://try.gitea.io/jolheiser/gitea-webhook/pulls/2.patch",
    "mergeable": true,
    "merged": false,
    "merged_at": null,
    "merge_commit_sha": null,
    "merged_by": null,
    "allow_maintainer_edit": false,
    "base": {
      "label": "main",
      "ref": "main",
      "sha": "34e97c7a1077b5cb29351763c2f36b3c3de6d671",
      "repo_id": 41431,
      "repo": {
        "id": 41431,
        "owner": {
          "id": 11280,
          "login": "jolheiser",
          "login_name": "",
          "full_name": "John Olheiser",
          "email": "jolheiser@noreply.try.gitea.io",
          "avatar_url": "https://secure.gravatar.com/avatar/cc498b605dee7b6fb9e6422332691bb4?d=identicon",
          "language": "",
          "is_admin": false,
          "last_login": "0001-01-01T00:00:00Z",
          "created": "2019-02-06T22:20:33Z",
          "restricted": false,
          "active": false,
          "prohibit_login": false,
          "location": "",
          "website": "",
          "description": "F is for friends who do stuff together.",
          "visibility": "public",
          "followers_count": 0,
          "following_count": 1,
          "starred_repos_count": -3,
          "username": "jolheiser"
        },
        "name": "gitea-webhook",
        "full_name": "jolheiser/gitea-webhook",
        "description": "",
        "empty": false,
        "private": true,
        "fork": false,
        "template": false,
        "parent": null,
        "mirror": false,
        "size": 21,
        "language": "",
        "languages_url": "https://try.gitea.io/api/v1/repos/jolheiser/gitea-webhook/languages",
        "html_url": "https://try.gitea.io/jolheiser/gitea-webhook",
        "ssh_url": "git@try.gitea.io:jolheiser/gitea-webhook.git",
        "clone_url": "https://try.gitea.io/jolheiser/gitea-webhook.git",
        "original_url": "",
        "website": "",
        "stars_count": 0,
        "forks_count": 1,
        "watchers_count": 1,
        "open_issues_count": 1,
        "open_pr_counter": 0,
        "release_counter": 1,
        "default_branch": "main",
        "archived": false,
        "created_at": "2023-01-26T04:02:27Z",
        "updated_at": "2023-01-26T04:02:31Z",
        "permissions": {
          "admin": false,
          "push": false,
          "pull": false
        },
        "has_issues": true,
        "internal_tracker": {
          "enable_time_tracker": false,
          "allow_only_contributors_to_track_time": true,
          "enable_issue_dependencies": true
        },
        "has_wiki": true,
        "has_pull_requests": true,
        "has_projects": true,
        "ignore_whitespace_conflicts": false,
        "allow_merge_commits": true,
        "allow_rebase": true,
        "allow_rebase_explicit": true,
        "allow_squash_merge": true,
        "allow_rebase_update": true,
        "default_delete_branch_after_merge": false,
        "default_merge_style": "merge",
        "avatar_url": "",
        "internal": false,
        "mirror_interval": "",
        "mirror_updated": "0001-01-01T00:00:00Z",
        "repo_transfer": null
      }
    },
    "head": {
      "label": "alt",
      "ref": "alt",
      "sha": "7918874444654e7e031e75355e5a5e4081b4c613",
      "repo_id": 41431,
      "repo": {
        "id": 41431,
        "owner": {
          "id": 11280,
          "login": "jolheiser",
          "login_name": "",
          "full_name": "John Olheiser",
          "email": "jolheiser@noreply.try.gitea.io",
          "avatar_url": "https://secure.gravatar.com/avatar/cc498b605dee7b6fb9e6422332691bb4?d=identicon",
          "language": "",
          "is_admin": false,
          "last_login": "0001-01-01T00:00:00Z",
          "created": "2019-02-06T22:20:33Z",
          "restricted": false,
          "active": false,
          "prohibit_login": false,
          "location": "",
          "website": "",
          "description": "F is for friends who do stuff together.",
          "visibility": "public",
          "followers_count": 0,
          "following_count": 1,
          "starred_repos_count": -3,
          "username": "jolheiser"
        },
        "name": "gitea-webhook",
        "full_name": "jolheiser/gitea-webhook",
        "description": "",
        "empty": false,
        "private": true,
        "fork": false,
        "template": false,
        "parent": null,
        "mirror": false,
        "size": 21,
        "language": "",
        "languages_url": "https://try.gitea.io/api/v1/repos/jolheiser/gitea-webhook/languages",
        "html_url": "https://try.gitea.io/jolheiser/gitea-webhook",
        "ssh_url": "git@try.gitea.io:jolheiser/gitea-webhook.git",
        "clone_url": "https://try.gitea.io/jolheiser/gitea-webhook.git",
        "original_url": "",
        "website": "",
        "stars_count": 0,
        "forks_count": 1,
        "watchers_count": 1,
        "open_issues_count": 1,
        "open_pr_counter": 0,
        "release_counter": 1,
        "default_branch": "main",
        "archived": false,
        "created_at": "2023-01-26T04:02:27Z",
        "updated_at": "2023-01-26T04:02:31Z",
        "permissions": {
          "admin": false,
          "push": false,
          "pull": false
        },
        "has_issues": true,
        "internal_tracker": {
          "enable_time_tracker": false,
          "allow_only_contributors_to_track_time": true,
          "enable_issue_dependencies": true
        },
        "has_wiki": true,
        "has_pull_requests": true,
        "has_projects": true,
        "ignore_whitespace_conflicts": false,
        "allow_merge_commits": true,
        "allow_rebase": true,
        "allow_rebase_explicit": true,
        "allow_squash_merge": true,
        "allow_rebase_update": true,
        "default_delete_branch_after_merge": false,
        "default_merge_style": "merge",
        "avatar_url": "",
        "internal": false,
        "mirror_interval": "",
        "mirror_updated": "0001-01-01T00:00:00Z",
        "repo_transfer": null
      }
    },
    "merge_base": "34e97c7a1077b5cb29351763c2f36b3c3de6d671",
    "due_date": null,
    "created_at": "2023-01-26T04:02:33Z",
    "updated_at": "2023-01-26T04:02:33Z",
    "closed_at": null
  },
  "repository": {
    "id": 41431,
    "owner": {
      "id": 11280,
      "login": "jolheiser",
      "login_name": "",
      "full_name": "John Olheiser",
      "email": "jolheiser@noreply.try.gitea.io",
      "avatar_url": "https://secure.gravatar.com/avatar/cc498b605dee7b6fb9e6422332691bb4?d=identicon",
      "language": "",
      "is_admin": false,
      "last_login": "0001-01-01T00:00:00Z",
      "created": "2019-02-06T22:20:33Z",
      "restricted": false,
      "active": false,
      "prohibit_login": false,
      "location": "",
      "website": "",
      "description": "F is for friends who do stuff together.",
      "visibility": "public",
      "followers_count": 0,
      "following_count": 1,
      "starred_repos_count": -3,
      "username": "jolheiser"
    },
    "name": "gitea-webhook",
    "full_name": "jolheiser/gitea-webhook",
    "description": "",
    "empty": false,
    "private": true,
    "fork": false,
    "template": false,
    "parent": null,
    "mirror": false,
    "size": 21,
    "language": "",
    "languages_url": "https://try.gitea.io/api/v1/repos/jolheiser/gitea-webhook/languages",
    "html_url": "https://try.gitea.io/jolheiser/gitea-webhook",
    "ssh_url": "git@try.gitea.io:jolheiser/gitea-webhook.git",
    "clone_url": "https://try.gitea.io/jolheiser/gitea-webhook.git",
    "original_url": "",
    "website": "",
    "stars_count": 0,
    "forks_count": 1,
    "watchers_count": 1,
    "open_issues_count": 1,
    "open_pr_counter": 1,
    "release_counter": 1,
    "default_branch": "main",
    "archived": false,
    "created_at": "2023-01-26T04:02:27Z",
    "updated_at": "2023-01-26T04:02:31Z",
    "permissions": {
      "admin": false,
      "push": false,
      "pull": false
    },
    "has_issues": true,
    "internal_tracker": {
      "enable_time_tracker": false,
      "allow_only_contributors_to_track_time": true,
      "enable_issue_dependencies": true
    },
    "has_wiki": true,
    "has_pull_requests": true,
    "has_projects": true,
    "ignore_whitespace_conflicts": false,
    "allow_merge_commits": true,
    "allow_rebase": true,
    "allow_rebase_explicit": true,
    "allow_squash_merge": true,
    "allow_rebase_update": true,
    "default_delete_branch_after_merge": false,
    "default_merge_style": "merge",
    "avatar_url": "",
    "internal": false,
    "mirror_interval": "",
    "mirror_updated": "0001-01-01T00:00:00Z",
    "repo_transfer": null
  },
  "sender": {
    "id": 11280,
    "login": "jolheiser",
    "login_name": "",
    "full_name": "John Olheiser",
    "email": "jolheiser@noreply.try.gitea.io",
    "avatar_url": "https://secure.gravatar.com/avatar/cc498b605dee7b6fb9e6422332691bb4?d=identicon",
    "language": "",
    "is_admin": false,
    "last_login": "0001-01-01T00:00:00Z",
    "created": "2019-02-06T22:20:33Z",
    "restricted": false,
    "active": false,
    "prohibit_login": false,
    "location": "",
    "website": "",
    "description": "F is for friends who do stuff together.",
    "visibility": "public",
    "followers_count": 0,
    "following_count": 1,
    "starred_repos_count": -3,
    "username": "jolheiser"
  },
  "commit_id": "",
  "review": null
}