{
  "ref": "refs/heads/main",
  "before": "34e97c7a1077b5cb29351763c2f36b3c3de6d671",
  "after": "c8ff807a3b136d9287d6c6cb4560bdd53204ae1d",
  "compare_url": "https://try.gitea.io/jolheiser/gitea-webhook/compare/34e97c7a1077b5cb29351763c2f36b3c3de6d671...c8ff807a3b136d9287d6c6cb4560bdd53204ae1d",
  "commits": [
    {
      "id": "c8ff807a3b136d9287d6c6cb4560bdd53204ae1d",
      "message": "Merge pull request 'Pull Request 1' (#2) from alt into main\n",
      "url": "https://try.gitea.io/jolheiser/gitea-webhook/commit/c8ff807a3b136d9287d6c6cb4560bdd53204ae1d",
      "author": {
        "name": "John Olheiser",
        "email": "jolheiser@noreply.try.gitea.io",
        "username": "jolheiser"
      },
      "committer": {
        "name": "John Olheiser",
        "email": "jolheiser@noreply.try.gitea.io",
        "username": "jolheiser"
      },
      "verification": null,
      "timestamp": "2023-01-26T04:02:38Z",
      "added": [],
      "removed": [],
      "modified": []
    },
    {
      "id": "6f38f2561c9e16126a202419227301bd32243a7d",
      "message": "Update 'FILE.txt'\n",
      "url": "https://try.gitea.io/jolheiser/gitea-webhook/commit/6f38f2561c9e16126a202419227301bd32243a7d",
      "author": {
        "name": "John Olheiser",
        "email": "jolheiser@noreply.try.gitea.io",
        "username": "jolheiser"
      },
      "committer": {
        "name": "John Olheiser",
        "email": "jolheiser@noreply.try.gitea.io",
        "username": "jolheiser"
      },
      "verification": null,
      "timestamp": "2023-01-26T04:02:36Z",
      "added": [],
      "removed": [],
      "modified": [
        "FILE.txt"
      ]
    },
    {
      "id": "7918874444654e7e031e75355e5a5e4081b4c613",
      "message": "Add 'FILE.txt'\n",
      "url": "https://try.gitea.io/jolheiser/gitea-webhook/commit/7918874444654e7e031e75355e5a5e4081b4c613",
      "author": {
        "name": "John Olheiser",
        "email": "jolheiser@noreply.try.gitea.io",
        "username": "jolheiser"
      },
      "committer": {
        "name": "John Olheiser",
        "email": "jolheiser@noreply.try.gitea.io",
        "username": "jolheiser"
      },
      "verification": null,
      "timestamp": "2023-01-26T04:02:30Z",
      "added": [
        "FILE.txt"
      ],
      "removed": [],
      "modified": []
    }
  ],
  "total_commits": 3,
  "head_commit": {
    "id": "c8ff807a3b136d9287d6c6cb4560bdd53204ae1d",
    "message": "Merge pull request 'Pull Request 1' (#2) from alt into main\n",
    "url": "https://try.gitea.io/jolheiser/gitea-webhook/commit/c8ff807a3b136d9287d6c6cb4560bdd53204ae1d",
    "author": {
      "name": "John Olheiser",
      "email": "jolheiser@noreply.try.gitea.io",
      "username": "jolheiser"
    },
    "committer": {
      "name": "John Olheiser",
      "email": "jolheiser@noreply.try.gitea.io",
      "username": "jolheiser"
    },
    "verification": null,
    "timestamp": "2023-01-26T04:02:38Z",
    "added": [],
    "removed": [],
    "modified": []
  },
  "repository": {
    "id": 41431,
    "owner": {
      "id": 11280,
      "login": "jolheiser",
      "login_name": "",
      "full_name": "John Olheiser",
      "email": "jolheiser@noreply.try.gitea.io",
      "avatar_url": "https://secure.gravatar.com/avatar/cc498b605dee7b6fb9e6422332691bb4?d=identicon",
      "language": "",
      "is_admin": false,
      "last_login": "0001-01-01T00:00:00Z",
      "created": "2019-02-06T22:20:33Z",
      "restricted": false,
      "active": false,
      "prohibit_login": false,
      "location": "",
      "website": "",
      "description": "F is for friends who do stuff together.",
      "visibility": "public",
      "followers_count": 0,
      "following_count": 1,
      "starred_repos_count": -3,
      "username": "jolheiser"
    },
    "name": "gitea-webhook",
    "full_name": "jolheiser/gitea-webhook",
    "description": "",
    "empty": false,
    "private": true,
    "fork": false,
    "template": false,
    "parent": null,
    "mirror": false,
    "size": 21,
    "language": "",
    "languages_url": "https://try.gitea.io/api/v1/repos/jolheiser/gitea-webhook/languages",
    "html_url": "https://try.gitea.io/jolheiser/gitea-webhook",
    "ssh_url": "git@try.gitea.io:jolheiser/gitea-webhook.git",
    "clone_url": "https://try.gitea.io/jolheiser/gitea-webhook.git",
    "original_url": "",
    "website": "",
    "stars_count": 0,
    "forks_count": 1,
    "watchers_count": 1,
    "open_issues_count": 1,
    "open_pr_counter": 0,
    "release_counter": 1,
    "default_branch": "main",
    "archived": false,
    "created_at": "2023-01-26T04:02:27Z",
    "updated_at": "2023-01-26T04:02:38Z",
    "permissions": {
      "admin": true,
      "push": true,
      "pull": true
    },
    "has_issues": true,
    "internal_tracker": {
      "enable_time_tracker": false,
      "allow_only_contributors_to_track_time": true,
      "enable_issue_dependencies": true
    },
    "has_wiki": true,
    "has_pull_requests": true,
    "has_projects": true,
    "ignore_whitespace_conflicts": false,
    "allow_merge_commits": true,
    "allow_rebase": true,
    "allow_rebase_explicit": true,
    "allow_squash_merge": true,
    "allow_rebase_update": true,
    "default_delete_branch_after_merge": false,
    "default_merge_style": "merge",
    "avatar_url": "",
    "internal": false,
    "mirror_interval": "",
    "mirror_updated": "0001-01-01T00:00:00Z",
    "repo_transfer": null
  },
  "pusher": {
    "id": 11280,
    "login": "jolheiser",
    "login_name": "",
    "full_name": "John Olheiser",
    "email": "jolheiser@noreply.try.gitea.io",
    "avatar_url": "https://secure.gravatar.com/avatar/cc498b605dee7b6fb9e6422332691bb4?d=identicon",
    "language": "",
    "is_admin": false,
    "last_login": "0001-01-01T00:00:00Z",
    "created": "2019-02-06T22:20:33Z",
    "restricted": false,
    "active": false,
    "prohibit_login": false,
    "location": "",
    "website": "",
    "description": "F is for friends who do stuff together.",
    "visibility": "public",
    "followers_count": 0,
    "following_count": 1,
    "starred_repos_count": -3,
    "username": "jolheiser"
  },
  "sender": {
    "id": 11280,
    "login": "jolheiser",
    "login_name": "",
    "full_name": "John Olheiser",
    "email": "jolheiser@noreply.try.gitea.io",
    "avatar_url": "https://secure.gravatar.com/avatar/cc498b605dee7b6fb9e6422332691bb4?d=identicon",
    "language": "",
    "is_admin": false,
    "last_login": "0001-01-01T00:00:00Z",
    "created": "2019-02-06T22:20:33Z",
    "restricted": false,
    "active": false,
    "prohibit_login": false,
    "location": "",
    "website": "",
    "description": "F is for friends who do stuff together.",
    "visibility": "public",
    "followers_count": 0,
    "following_count": 1,
    "starred_repos_count": -3,
    "username": "jolheiser"
  }
}