{
  "action": "published",
  "release": {
    "id": 7870222,
    "tag_name": "release",
    "target_commitish": "main",
    "name": "Release 1",
    "body": "Release Notes",
    "url": "https://try.gitea.io/api/v1/repos/jolheiser/gitea-webhook/releases/7870222",
    "html_url": "https://try.gitea.io/jolheiser/gitea-webhook/releases/tag/release",
    "tarball_url": "https://try.gitea.io/jolheiser/gitea-webhook/archive/release.tar.gz",
    "zipball_url": "https://try.gitea.io/jolheiser/gitea-webhook/archive/release.zip",
    "draft": false,
    "prerelease": false,
    "created_at": "2023-01-26T04:02:32Z",
    "published_at": "2023-01-26T04:02:32Z",
    "author": {
      "id": 11280,
      "login": "jolheiser",
      "login_name": "",
      "full_name": "John Olheiser",
      "email": "jolheiser@noreply.try.gitea.io",
      "avatar_url": "https://secure.gravatar.com/avatar/cc498b605dee7b6fb9e6422332691bb4?d=identicon",
      "language": "",
      "is_admin": false,
      "last_login": "0001-01-01T00:00:00Z",
      "created": "2019-02-06T22:20:33Z",
      "restricted": false,
      "active": false,
      "prohibit_login": false,
      "location": "",
      "website": "",
      "description": "F is for friends who do stuff together.",
      "visibility": "public",
      "followers_count": 0,
      "following_count": 1,
      "starred_repos_count": -3,
      "username": "jolheiser"
    },
    "assets": []
  },
  "repository": {
    "id": 41431,
    "owner": {
      "id": 11280,
      "login": "jolheiser",
      "login_name": "",
      "full_name": "John Olheiser",
      "email": "jolheiser@noreply.try.gitea.io",
      "avatar_url": "https://secure.gravatar.com/avatar/cc498b605dee7b6fb9e6422332691bb4?d=identicon",
      "language": "",
      "is_admin": false,
      "last_login": "0001-01-01T00:00:00Z",
      "created": "2019-02-06T22:20:33Z",
      "restricted": false,
      "active": false,
      "prohibit_login": false,
      "location": "",
      "website": "",
      "description": "F is for friends who do stuff together.",
      "visibility": "public",
      "followers_count": 0,
      "following_count": 1,
      "starred_repos_count": -3,
      "username": "jolheiser"
    },
    "name": "gitea-webhook",
    "full_name": "jolheiser/gitea-webhook",
    "description": "",
    "empty": false,
    "private": true,
    "fork": false,
    "template": false,
    "parent": null,
    "mirror": false,
    "size": 21,
    "language": "",
    "languages_url": "https://try.gitea.io/api/v1/repos/jolheiser/gitea-webhook/languages",
    "html_url": "https://try.gitea.io/jolheiser/gitea-webhook",
    "ssh_url": "git@try.gitea.io:jolheiser/gitea-webhook.git",
    "clone_url": "https://try.gitea.io/jolheiser/gitea-webhook.git",
    "original_url": "",
    "website": "",
    "stars_count": 0,
    "forks_count": 1,
    "watchers_count": 1,
    "open_issues_count": 0,
    "open_pr_counter": 0,
    "release_counter": 1,
    "default_branch": "main",
    "archived": false,
    "created_at": "2023-01-26T04:02:27Z",
    "updated_at": "2023-01-26T04:02:31Z",
    "permissions": {
      "admin": true,
      "push": true,
      "pull": true
    },
    "has_issues": true,
    "internal_tracker": {
      "enable_time_tracker": false,
      "allow_only_contributors_to_track_time": true,
      "enable_issue_dependencies": true
    },
    "has_wiki": true,
    "has_pull_requests": true,
    "has_projects": true,
    "ignore_whitespace_conflicts": false,
    "allow_merge_commits": true,
    "allow_rebase": true,
    "allow_rebase_explicit": true,
    "allow_squash_merge": true,
    "allow_rebase_update": true,
    "default_delete_branch_after_merge": false,
    "default_merge_style": "merge",
    "avatar_url": "",
    "internal": false,
    "mirror_interval": "",
    "mirror_updated": "0001-01-01T00:00:00Z",
    "repo_transfer": null
  },
  "sender": {
    "id": 11280,
    "login": "jolheiser",
    "login_name": "",
    "full_name": "John Olheiser",
    "email": "jolheiser@noreply.try.gitea.io",
    "avatar_url": "https://secure.gravatar.com/avatar/cc498b605dee7b6fb9e6422332691bb4?d=identicon",
    "language": "",
    "is_admin": false,
    "last_login": "0001-01-01T00:00:00Z",
    "created": "2019-02-06T22:20:33Z",
    "restricted": false,
    "active": false,
    "prohibit_login": false,
    "location": "",
    "website": "",
    "description": "F is for friends who do stuff together.",
    "visibility": "public",
    "followers_count": 0,
    "following_count": 1,
    "starred_repos_count": -3,
    "username": "jolheiser"
  }
}